[gd_scene load_steps=6 format=2]

[ext_resource path="res://Scenes/Enemy.gd" type="Script" id=1]
[ext_resource path="res://Assets/enemyWalking_1.png" type="Texture" id=2]
[ext_resource path="res://Assets/enemyWalking_2.png" type="Texture" id=3]

[sub_resource type="SpriteFrames" id=1]
animations = [ {
"frames": [ ExtResource( 2 ), ExtResource( 3 ) ],
"loop": true,
"name": "walk",
"speed": 5.0
} ]

[sub_resource type="RectangleShape2D" id=2]
extents = Vector2( 16.9287, 22.5894 )

[node name="Enemy" type="KinematicBody2D"]
scale = Vector2( 2, 2 )
script = ExtResource( 1 )

[node name="AnimatedSprite" type="AnimatedSprite" parent="."]
frames = SubResource( 1 )
animation = "walk"

[node name="CollisionShape2D" type="CollisionShape2D" parent="."]
shape = SubResource( 2 )
