[gd_scene load_steps=9 format=2]

[sub_resource type="Gradient" id=1]
offsets = PoolRealArray( 0.0037037, 0.196296, 0.507407, 0.77037, 0.981481 )
colors = PoolColorArray( 0.871094, 0.747671, 0.0811851, 1, 0.884174, 0.61017, 0.0749619, 1, 0.905303, 0.388054, 0.0649092, 1, 0.923162, 0.200312, 0.0564122, 1, 0.9375, 0.0495907, 0.0495907, 1 )

[sub_resource type="GradientTexture" id=2]
gradient = SubResource( 1 )

[sub_resource type="Curve" id=3]
min_value = -400.0
max_value = 400.0
_data = [ Vector2( 0.0158402, 350.943 ), 0.0, -54.6268, 0, 0, Vector2( 0.981329, -271.247 ), -385.253, 0.0, 0, 0 ]

[sub_resource type="CurveTexture" id=4]
curve = SubResource( 3 )

[sub_resource type="Curve" id=5]
max_value = 2.5
_data = [ Vector2( 0, 2.19733 ), 0.0, 0.0, 0, 0, Vector2( 0.986991, 0.438 ), 0.0, 0.0, 0, 0 ]

[sub_resource type="CurveTexture" id=6]
curve = SubResource( 5 )

[sub_resource type="ParticlesMaterial" id=7]
flag_disable_z = true
spread = 180.0
gravity = Vector3( 0, 0, 0 )
initial_velocity = 100.0
initial_velocity_random = 0.5
angular_velocity = 5.60519e-45
orbit_velocity = 0.0
orbit_velocity_random = 0.0
linear_accel = 100.0
linear_accel_random = 0.2
linear_accel_curve = SubResource( 4 )
scale = 2.0
scale_random = 1.0
scale_curve = SubResource( 6 )
color_ramp = SubResource( 2 )

[sub_resource type="ParticlesMaterial" id=8]
flag_disable_z = true
spread = 180.0
gravity = Vector3( 0, 0, 0 )
initial_velocity = 100.0
initial_velocity_random = 0.3
angular_velocity = 2.8026e-44
orbit_velocity = 0.0
orbit_velocity_random = 0.0

[node name="Node2D" type="Node2D"]

[node name="Particles2D" type="Particles2D" parent="."]
amount = 200
lifetime = 0.5
explosiveness = 0.5
process_material = SubResource( 7 )

[node name="Particles2D" type="Particles2D" parent="Particles2D"]
process_material = SubResource( 8 )
