[gd_scene load_steps=5 format=2]

[ext_resource path="res://Scenes/Fire.gd" type="Script" id=1]
[ext_resource path="res://Assets/fire.png" type="Texture" id=2]

[sub_resource type="Animation" id=1]
resource_name = "FireAnimation"
length = 2.5
loop = true
tracks/0/type = "value"
tracks/0/path = NodePath("Sprite:frame")
tracks/0/interp = 1
tracks/0/loop_wrap = true
tracks/0/imported = false
tracks/0/enabled = true
tracks/0/keys = {
"times": PoolRealArray( 0, 0.1, 0.2, 0.3, 0.4, 0.5, 0.6, 0.7, 0.8, 0.9, 1, 1.1, 1.2, 1.3, 1.4, 1.5, 1.6, 1.7, 1.8, 1.9, 2, 2.1, 2.2, 2.3, 2.4, 2.5 ),
"transitions": PoolRealArray( 1, 1, 1, 1, 1, 1, 1, 1, 1, 1, 1, 1, 1, 1, 1, 1, 1, 1, 1, 1, 1, 1, 1, 1, 1, 1 ),
"update": 1,
"values": [ 1, 2, 3, 4, 5, 6, 7, 8, 9, 10, 11, 12, 13, 14, 15, 16, 17, 18, 19, 20, 21, 22, 23, 24, 25, 31 ]
}

[sub_resource type="RectangleShape2D" id=2]
extents = Vector2( 12.4712, 24.0621 )

[node name="Fire" type="Area2D"]
rotation = -0.000509984
scale = Vector2( 1.25, 1.25 )
script = ExtResource( 1 )

[node name="Sprite" type="Sprite" parent="."]
position = Vector2( 0, -0.58689 )
texture = ExtResource( 2 )
vframes = 4
hframes = 8
frame = 17

[node name="AnimationPlayer" type="AnimationPlayer" parent="."]
anims/FireAnimation = SubResource( 1 )

[node name="CollisionShape2D" type="CollisionShape2D" parent="."]
position = Vector2( 2.98334, 16.7262 )
shape = SubResource( 2 )
[connection signal="body_entered" from="." to="." method="_on_Fire_body_entered"]
