[gd_scene load_steps=12 format=2]

[ext_resource path="res://Scenes/Level 1.gd" type="Script" id=1]
[ext_resource path="res://Scenes/Label.gd" type="Script" id=2]
[ext_resource path="res://Assets/LabTileSet.tres" type="TileSet" id=3]
[ext_resource path="res://Scenes/Control.gd" type="Script" id=4]
[ext_resource path="res://Scenes/Enemy.tscn" type="PackedScene" id=5]
[ext_resource path="res://Scenes/powerup1.tscn" type="PackedScene" id=6]
[ext_resource path="res://Scenes/powerup2.tscn" type="PackedScene" id=7]
[ext_resource path="res://Scenes/Pintu.tscn" type="PackedScene" id=8]
[ext_resource path="res://Scenes/orang.tscn" type="PackedScene" id=9]
[ext_resource path="res://Scenes/Explosion.tscn" type="PackedScene" id=10]
[ext_resource path="res://Scenes/Fire.tscn" type="PackedScene" id=11]

[node name="Level 1" type="Node2D"]
script = ExtResource( 1 )

[node name="CanvasLayer" type="CanvasLayer" parent="."]
editor/display_folded = true

[node name="MarginContainer" type="MarginContainer" parent="CanvasLayer"]
editor/display_folded = true
margin_right = 40.0
margin_bottom = 40.0

[node name="label" type="Label" parent="CanvasLayer/MarginContainer"]
margin_top = 13.0
margin_right = 40.0
margin_bottom = 27.0
script = ExtResource( 2 )

[node name="TileMap" type="TileMap" parent="."]
position = Vector2( 1, 0 )
tile_set = ExtResource( 3 )
format = 1
tile_data = PoolIntArray( -65544, 0, 0, -65540, 5, 0, -131072, 5, 0, -131068, 5, 0, -131064, 5, 0, -131060, 5, 0, -131056, 5, 0, -131052, 5, 0, -131048, 5, 0, -131044, 5, 0, -131040, 5, 0, -131036, 5, 0, -131032, 5, 0, -131028, 5, 0, -131024, 5, 0, -131020, 5, 0, -131016, 5, 0, -131012, 5, 0, -131008, 5, 0, -131004, 5, 0, -131000, 5, 0, -130996, 5, 0, -130992, 5, 0, -130988, 5, 0, -130984, 5, 0, -130980, 5, 0, -130976, 5, 0, -130972, 5, 0, -130968, 5, 0, -130964, 5, 0, -130960, 5, 0, -130956, 5, 0, -130952, 5, 0, -130948, 5, 0, -130944, 5, 0, -130940, 5, 0, -130936, 5, 0, -130932, 5, 0, -130928, 5, 0, -130924, 5, 0, -130920, 0, 0, 65532, 0, 0, 0, 9, 0, 3, 9, 0, 7, 9, 0, 11, 9, 0, 15, 9, 0, 19, 9, 0, 22, 10, 0, 26, 10, 0, 30, 10, 0, 34, 10, 0, 38, 10, 0, 42, 10, 0, 44, 10, 0, 48, 10, 0, 52, 10, 0, 56, 10, 0, 60, 10, 0, 64, 10, 0, 68, 10, 0, 72, 10, 0, 76, 10, 0, 80, 9, 0, 84, 9, 0, 88, 9, 0, 92, 9, 0, 96, 9, 0, 100, 9, 0, 104, 10, 0, 108, 10, 0, 112, 10, 0, 116, 9, 0, 120, 9, 0, 124, 9, 0, 128, 9, 0, 132, 9, 0, 136, 9, 0, 140, 9, 0, 144, 9, 0, 148, 9, 0, 196600, 0, 0, 131224, 0, 0, 327675, 0, 0, 327679, 0, 0, 262147, 11, 0, 262151, 11, 0, 262155, 11, 0, 262159, 11, 0, 262163, 11, 0, 262167, 11, 0, 262171, 11, 0, 262175, 11, 0, 262179, 11, 0, 262183, 11, 0, 262187, 11, 0, 262191, 11, 0, 262195, 12, 0, 262199, 11, 0, 262203, 21, 0, 262207, 21, 0, 262211, 21, 0, 262215, 21, 0, 262219, 21, 0, 262223, 21, 0, 262227, 21, 0, 262231, 11, 0, 262235, 11, 0, 262239, 12, 0, 262243, 12, 0, 262247, 11, 0, 262251, 11, 0, 262255, 11, 0, 262259, 21, 0, 262263, 21, 0, 262267, 21, 0, 262271, 21, 0, 262275, 21, 0, 262279, 21, 0, 262283, 21, 0, 262287, 21, 0, 262291, 21, 0, 262295, 20, 0, 262296, 26, 0, 458744, 0, 0, 393251, 17, 0, 393256, 17, 0, 393303, 24, 0, 393307, 24, 0, 393357, 16, 0, 393361, 16, 0, 393365, 16, 0, 393368, 0, 0, 458802, 16, 0, 589816, 0, 0, 589819, 0, 0, 589823, 0, 0, 524291, 25, 0, 524295, 17, 0, 524299, 26, 0, 524303, 20, 0, 524307, 12, 0, 524311, 12, 0, 524315, 12, 0, 524319, 12, 0, 524323, 12, 0, 524327, 12, 0, 524331, 12, 0, 524335, 12, 0, 524342, 21, 0, 524343, 12, 0, 524347, 20, 0, 524351, 20, 0, 524355, 20, 0, 524359, 20, 0, 524363, 20, 0, 524367, 16, 0, 524371, 16, 0, 524383, 24, 0, 524387, 24, 0, 524391, 12, 0, 524395, 12, 0, 524399, 12, 0, 524403, 21, 0, 524407, 20, 0, 524408, 20, 0, 524412, 20, 0, 524416, 20, 0, 524420, 20, 0, 524424, 16, 0, 524428, 11, 0, 524432, 11, 0, 524436, 11, 0, 589831, 12, 0, 589855, 17, 0, 589869, 17, 0, 589875, 21, 0, 589976, 0, 0, 655415, 18, 0, 655419, 7, 0, 655423, 7, 0, 655427, 7, 0, 655431, 7, 0, 655435, 7, 0, 655439, 4, 0, 655443, 4, 0, 655447, 5, 0, 655451, 5, 0, 655491, 16, 0, 655496, 20, 0, 786432, 10, 0, 786435, 10, 0, 786439, 10, 0, 786443, 10, 0, 786447, 17, 0, 786451, 24, 0, 786455, 24, 0, 786459, 24, 0, 786463, 23, 0, 786467, 12, 0, 786471, 12, 0, 786475, 12, 0, 786479, 12, 0, 786483, 12, 0, 786487, 12, 0, 786491, 0, 0, 786495, 0, 0, 786499, 0, 0, 786503, 0, 0, 786507, 0, 0, 786511, 12, 0, 786515, 12, 0, 786519, 11, 0, 786523, 11, 0, 786527, 12, 0, 786531, 12, 0, 786535, 24, 0, 786539, 24, 0, 786543, 24, 0, 786547, 21, 0, 786551, 20, 0, 786555, 20, 0, 786558, 18, 0, 786562, 21, 0, 786564, 20, 0, 786572, 11, 0, 786576, 11, 0, 786580, 11, 0, 851983, 12, 0, 852120, 0, 0, 917619, 16, 0, 917623, 16, 0, 917627, 16, 0, 917631, 21, 0, 917640, 20, 0, 1048595, 10, 0, 1048599, 10, 0, 1048603, 10, 0, 1048607, 10, 0, 1048611, 10, 0, 1048615, 10, 0, 1048619, 10, 0, 1048623, 10, 0, 1048627, 10, 0, 1048631, 10, 0, 1048635, 10, 0, 1048638, 10, 0, 1048641, 10, 0, 1048645, 10, 0, 1048649, 10, 0, 1048653, 10, 0, 1048656, 10, 0, 1048660, 10, 0, 1048664, 10, 0, 1048668, 10, 0, 1048672, 10, 0, 1048676, 10, 0, 1048680, 10, 0, 1048684, 10, 0, 1048688, 10, 0, 1048692, 10, 0, 1048696, 10, 0, 1048700, 10, 0, 1048704, 10, 0, 1048708, 10, 0, 1048712, 10, 0, 1048716, 10, 0, 1048720, 10, 0, 1048724, 10, 0, 1048728, 0, 0, 1114127, 10, 0 )

[node name="Control" type="Control" parent="."]
pause_mode = 2
editor/display_folded = true
visible = false
anchor_right = 1.0
anchor_bottom = 1.0
script = ExtResource( 4 )

[node name="ColorRect" type="ColorRect" parent="Control"]
pause_mode = 2
margin_left = -328.0
margin_top = 2.0
margin_right = 7477.0
margin_bottom = 1409.0
color = Color( 0, 0, 0, 0.380392 )

[node name="Enemy" parent="." instance=ExtResource( 5 )]
position = Vector2( 1280.46, 687.843 )

[node name="Enemy2" parent="." instance=ExtResource( 5 )]
position = Vector2( 3551.28, 575.638 )

[node name="Enemy3" parent="." instance=ExtResource( 5 )]
position = Vector2( 6685.9, 691.405 )

[node name="Enemy4" parent="." instance=ExtResource( 5 )]
position = Vector2( 7442.83, 805.391 )

[node name="Timer" type="Timer" parent="."]
wait_time = 50.0
one_shot = true

[node name="Area2D" parent="." instance=ExtResource( 6 )]
position = Vector2( 2645.66, 360.497 )
rotation = 0.00655782

[node name="Area2D2" parent="." instance=ExtResource( 6 )]
position = Vector2( 5105.38, 483.012 )

[node name="Area2D3" parent="." instance=ExtResource( 7 )]
position = Vector2( 3276.86, 425.566 )

[node name="Area2D4" parent="." instance=ExtResource( 7 )]
position = Vector2( 4443.79, 593.216 )

[node name="Pintu" parent="." instance=ExtResource( 8 )]
position = Vector2( 9418.23, 307.828 )

[node name="orang" parent="." instance=ExtResource( 9 )]
position = Vector2( 247.178, 433.574 )

[node name="Node2D" parent="." instance=ExtResource( 10 )]
visible = false
position = Vector2( 1219.96, 37.0279 )
scale = Vector2( 50, 50 )

[node name="Node2D-e2" parent="." instance=ExtResource( 10 )]
visible = false
position = Vector2( 3038.66, 25.2342 )
scale = Vector2( 50, 50 )

[node name="Node2D-e3" parent="." instance=ExtResource( 10 )]
visible = false
position = Vector2( 4810.3, 37.6813 )
scale = Vector2( 50, 50 )

[node name="Node2D-e4" parent="." instance=ExtResource( 10 )]
visible = false
position = Vector2( 6846.41, 83.3206 )
scale = Vector2( 50, 50 )

[node name="Node2D-e5" parent="." instance=ExtResource( 10 )]
visible = false
position = Vector2( 8595.94, 167.522 )
scale = Vector2( 50, 50 )

[node name="Fire" parent="." instance=ExtResource( 11 )]
position = Vector2( 1664.52, 653.504 )
rotation = -0.0122578
scale = Vector2( 2.5, 2.5 )

[node name="Fire2" parent="." instance=ExtResource( 11 )]
position = Vector2( 2127.19, 459.216 )
rotation = -0.0122578
scale = Vector2( 2.5, 2.5 )

[node name="Fire3" parent="." instance=ExtResource( 11 )]
position = Vector2( 2994.71, 453.794 )
rotation = -0.0122578
scale = Vector2( 2.5, 2.5 )

[node name="Fire4" parent="." instance=ExtResource( 11 )]
position = Vector2( 4010.43, 511.629 )
rotation = -0.0122578
scale = Vector2( 2.5, 2.5 )

[node name="Fire5" parent="." instance=ExtResource( 11 )]
position = Vector2( 5810.53, 272.158 )
rotation = -0.0122578
scale = Vector2( 2.5, 2.5 )

[node name="Fire6" parent="." instance=ExtResource( 11 )]
position = Vector2( 6366.28, 391.442 )
rotation = -0.0122578
scale = Vector2( 2.5, 2.5 )

[node name="Fire7" parent="." instance=ExtResource( 11 )]
position = Vector2( 8465.49, 524.28 )
rotation = -0.0122578
scale = Vector2( 2.5, 2.5 )

[node name="Timer2" type="Timer" parent="."]
wait_time = 5.0
[connection signal="timeout" from="Timer" to="." method="_on_Timer_timeout"]
[connection signal="timeout" from="Timer2" to="." method="_on_Timer2_timeout"]
